#Grid-Scan using Optidos
#Timet: 27-01-20-12:58:32
#Unit: Gy
#Duration: 20 s
#
#Aufloesung:
#  0 besser als 0.5%
#  1 zwischen 0.5% und 1%
#  2 schlechter als 1%
#Meßbereich:
#  0 Low
#  1 High
#
x[mm];y[mm];z[mm];Value;Resolution;Range
24.65;26.62;0;0.1937;0;0
24.7;26.62;0;0.1939;0;0
24.75;26.62;0;0.1936;0;0
24.75;26.66;0;0.1937;0;0
24.7;26.66;0;0.1937;0;0
24.65;26.66;0;0.1933;0;0
24.65;26.7;0;0.1934;0;0
24.7;26.7;0;0.1933;0;0
24.75;26.7;0;0.1934;0;0
24.75;26.74;0;0.1931;0;0
24.7;26.74;0;0.1931;0;0
24.65;26.74;0;0.1928;0;0
