logf A Aerr phi phierr
7.781512503836435224e-01 5.369369369369369593e+01 6.032009375249174354e-01 2.224247598741573295e+00 3.769911184307751795e-02
1.000000000000000000e+00 7.323943661971831887e+01 8.728990441853521354e-01 2.324778563656446639e+00 6.283185307179586787e-02
1.176091259055681126e+00 8.518518518518519045e+01 8.108892478723457309e-01 2.419026343264141232e+00 9.424777960769378793e-02
1.477121254719662380e+00 1.000000000000000142e+02 1.625532830313902721e+00 2.701769682087221902e+00 3.769911184307751795e-02
1.845098040014256924e+00 1.066666666666666714e+02 1.624571274034171120e+00 2.990796206217483100e+00 4.398229715025711584e-02
2.176091259055680904e+00 1.071428571428571530e+02 1.610540386866812668e+00 3.091327171132356000e+00 3.769911184307751795e-02
2.477121254719662158e+00 1.076923076923076934e+02 1.614959693537007857e+00 3.129026282975434281e+00 3.769911184307751795e-02
2.999999999999999556e+00 1.082417582417582480e+02 1.619389452441807764e+00 3.116459912361074558e+00 2.513274122871834645e-02
3.602059991327962063e+00 1.082872928176795426e+02 1.628705959704005224e+00 3.116459912361074558e+00 5.026548245743669291e-02
4.000000000000000000e+00 1.076923076923076934e+02 1.614959693537007857e+00 3.091327171132356444e+00 2.513274122871834645e-02
4.477121254719661714e+00 1.065934065934065984e+02 1.606131618709888853e+00 3.041061688674919328e+00 3.769911184307751795e-02
5.000000000000000000e+00 9.425287356321840093e+01 1.579512952543017823e+00 2.638937829015425951e+00 6.283185307179586787e-02
5.146128035678237289e+00 8.588235294117646390e+01 1.169140609272856901e+00 2.483114833397372490e+00 3.518583772020568434e-02
5.278753600952828862e+00 7.500000000000000000e+01 1.073080736745234853e+00 2.295875911243420830e+00 2.387610416728242965e-02
5.397940008672036605e+00 6.385542168674697905e+01 9.771310798255377073e-01 2.199114857512856069e+00 3.141592653589793394e-02
